{
    "content": [
        {
            "id": 1,
            "user": {
                "id": 1,
                "vipEntity": {
                    "id": 1,
                    "realName": "马悦",
                    "adviser": {
                        "id": 3,
                        "adminNo": "adminNo4441",
                        "name": "测试"
                    }
                }
            },
            "demandWay": "Telephone",
            "problem": "晚上睡不好",
            "solution": "多冥想,口味清淡",
            "remark": "患者年龄较大",
            "completed": true,
            "completedAt": 1488597671000
        },
        {
            "id": 1,
            "user": {
                "id": 1,
                "vipEntity": {
                    "id": 1,
                    "realName": "马悦",
                    "adviser": {
                        "id": 3,
                        "adminNo": "adminNo4441",
                        "name": "测试"
                    }
                }
            },
            "demandWay": "Telephone",
            "problem": "晚上睡不好",
            "solution": "多冥想,口味清淡",
            "remark": "患者年龄较大",
            "completed": true,
            "completedAt": 1488597671000
        },
        {
            "id": 1,
            "user": {
                "id": 1,
                "vipEntity": {
                    "id": 1,
                    "realName": "马悦",
                    "adviser": {
                        "id": 3,
                        "adminNo": "adminNo4441",
                        "name": "测试"
                    }
                }
            },
            "demandWay": "Telephone",
            "problem": "晚上睡不好",
            "solution": "多冥想,口味清淡",
            "remark": "患者年龄较大",
            "completed": true,
            "completedAt": 1488597671000
        },
        {
            "id": 1,
            "user": {
                "id": 1,
                "vipEntity": {
                    "id": 1,
                    "realName": "马悦",
                    "adviser": {
                        "id": 3,
                        "adminNo": "adminNo4441",
                        "name": "测试"
                    }
                }
            },
            "demandWay": "Telephone",
            "problem": "晚上睡不好",
            "solution": "多冥想,口味清淡",
            "remark": "患者年龄较大",
            "completed": true,
            "completedAt": 1488597671000
        },
        {
            "id": 1,
            "user": {
                "id": 1,
                "vipEntity": {
                    "id": 1,
                    "realName": "马悦",
                    "adviser": {
                        "id": 3,
                        "adminNo": "adminNo4441",
                        "name": "测试"
                    }
                }
            },
            "demandWay": "Telephone",
            "problem": "晚上睡不好",
            "solution": "多冥想,口味清淡",
            "remark": "患者年龄较大",
            "completed": true,
            "completedAt": 1488597671000
        },
        {
            "id": 1,
            "user": {
                "id": 1,
                "vipEntity": {
                    "id": 1,
                    "realName": "马悦",
                    "adviser": {
                        "id": 3,
                        "adminNo": "adminNo4441",
                        "name": "测试"
                    }
                }
            },
            "demandWay": "Telephone",
            "problem": "晚上睡不好",
            "solution": "多冥想,口味清淡",
            "remark": "患者年龄较大",
            "completed": true,
            "completedAt": 1488597671000
        },
        {
            "id": 1,
            "user": {
                "id": 1,
                "vipEntity": {
                    "id": 1,
                    "realName": "马悦",
                    "adviser": {
                        "id": 3,
                        "adminNo": "adminNo4441",
                        "name": "测试"
                    }
                }
            },
            "demandWay": "Telephone",
            "problem": "晚上睡不好",
            "solution": "多冥想,口味清淡",
            "remark": "患者年龄较大",
            "completed": true,
            "completedAt": 1488597671000
        },
        {
            "id": 1,
            "user": {
                "id": 1,
                "vipEntity": {
                    "id": 1,
                    "realName": "马悦",
                    "adviser": {
                        "id": 3,
                        "adminNo": "adminNo4441",
                        "name": "测试"
                    }
                }
            },
            "demandWay": "Telephone",
            "problem": "晚上睡不好",
            "solution": "多冥想,口味清淡",
            "remark": "患者年龄较大",
            "completed": true,
            "completedAt": 1488597671000
        },
        {
            "id": 1,
            "user": {
                "id": 1,
                "vipEntity": {
                    "id": 1,
                    "realName": "马悦",
                    "adviser": {
                        "id": 3,
                        "adminNo": "adminNo4441",
                        "name": "测试"
                    }
                }
            },
            "demandWay": "Telephone",
            "problem": "晚上睡不好",
            "solution": "多冥想,口味清淡",
            "remark": "患者年龄较大",
            "completed": true,
            "completedAt": 1488597671000
        },
        {
            "id": 1,
            "user": {
                "id": 1,
                "vipEntity": {
                    "id": 1,
                    "realName": "马悦",
                    "adviser": {
                        "id": 3,
                        "adminNo": "adminNo4441",
                        "name": "测试"
                    }
                }
            },
            "demandWay": "Telephone",
            "problem": "晚上睡不好",
            "solution": "多冥想,口味清淡",
            "remark": "患者年龄较大",
            "completed": true,
            "completedAt": 1488597671000
        }
    ],
    "totalPages": 11,
    "totalElements": 105,
    "pageNum": 10,
    "page":0
}
