{
    "totalPages": 12,
    "totalElements": 239,
    "pageNum": 10,
    "content": [{
            "contactAddress": 111111111111,
            "adviser": {
                "mobile": "",
                "job": "",
                "iconUrl": "",
                "adminNo": "",
                "roles": [{
                    "idCode": "",
                    "name": ""
                }],
                "name": "张三丰",
                "id": 0
            },
            "idNo": 11111111111111,
            "gender": "M",
            "mobile": 13615215658,
            "job": "",
            "iconUrl": "../../images/5.png",
            "drinkingSituation": "",
            "sleepSituation": "",
            "smokingSituation": "",
            "nationality": "",
            "nativePlace": "天津市中国区",
            "medicalHistory": "",
            "familyMedicalHistory": "",
            "fertility": "",
            "allergic": "",
            "vipCard": {
                "activated": "时间戳",
                "expiredAt": 1488202469,
                "vipCard": "时间戳"
            },
            "id": 156,
            "realName": "张无忌"
        },
        {
            "contactAddress": 111111111111,
            "adviser": {
                "mobile": "",
                "job": "",
                "iconUrl": "",
                "adminNo": "",
                "roles": [{
                    "idCode": "",
                    "name": ""
                }],
                "name": "张三丰",
                "id": 0
            },
            "idNo": 11111111111111,
            "gender": "M",
            "mobile": 13615215658,
            "job": "",
            "iconUrl": "../../images/5.png",
            "drinkingSituation": "",
            "sleepSituation": "",
            "smokingSituation": "",
            "nationality": "",
            "nativePlace": "天津市中国区",
            "medicalHistory": "",
            "familyMedicalHistory": "",
            "fertility": "",
            "allergic": "",
            "vipCard": {
                "activated": "时间戳",
                "expiredAt": 1488202469,
                "vipCard": "时间戳"
            },
            "id": 156121,
            "realName": "张无忌"
        },
        {
            "contactAddress": 111111111111,
            "adviser": {
                "mobile": "",
                "job": "",
                "iconUrl": "",
                "adminNo": "",
                "roles": [{
                    "idCode": "",
                    "name": ""
                }],
                "name": "张三丰",
                "id": 0
            },
            "idNo": 11111111111111,
            "gender": "M",
            "mobile": 13615215658,
            "job": "",
            "iconUrl": "../../images/5.png",
            "drinkingSituation": "",
            "sleepSituation": "",
            "smokingSituation": "",
            "nationality": "",
            "nativePlace": "天津市中国区",
            "medicalHistory": "",
            "familyMedicalHistory": "",
            "fertility": "",
            "allergic": "",
            "vipCard": {
                "activated": "时间戳",
                "expiredAt": 1488202469,
                "vipCard": "时间戳"
            },
            "id": 111156,
            "realName": "张无忌"
        },
        {
            "contactAddress": 111111111111,
            "adviser": {
                "mobile": "",
                "job": "",
                "iconUrl": "",
                "adminNo": "",
                "roles": [{
                    "idCode": "",
                    "name": ""
                }],
                "name": "张三丰",
                "id": 0
            },
            "idNo": 11111111111111,
            "gender": "M",
            "mobile": 13615215658,
            "job": "",
            "iconUrl": "../../images/5.png",
            "drinkingSituation": "",
            "sleepSituation": "",
            "smokingSituation": "",
            "nationality": "",
            "nativePlace": "天津市中国区",
            "medicalHistory": "",
            "familyMedicalHistory": "",
            "fertility": "",
            "allergic": "",
            "vipCard": {
                "activated": "时间戳",
                "expiredAt": 1488202469,
                "vipCard": "时间戳"
            },
            "id": 122256,
            "realName": "张无忌"
        },
        {
            "contactAddress": 111111111111,
            "adviser": {
                "mobile": "",
                "job": "",
                "iconUrl": "",
                "adminNo": "",
                "roles": [{
                    "idCode": "",
                    "name": ""
                }],
                "name": "张三丰",
                "id": 0
            },
            "idNo": 11111111111111,
            "gender": "M",
            "mobile": 13615215658,
            "job": "",
            "iconUrl": "../../images/5.png",
            "drinkingSituation": "",
            "sleepSituation": "",
            "smokingSituation": "",
            "nationality": "",
            "nativePlace": "天津市中国区",
            "medicalHistory": "",
            "familyMedicalHistory": "",
            "fertility": "",
            "allergic": "",
            "vipCard": {
                "activated": "时间戳",
                "expiredAt": 1488202469,
                "vipCard": "时间戳"
            },
            "id": 156333,
            "realName": "张无忌"
        },
        {
            "contactAddress": 111111111111,
            "adviser": {
                "mobile": "",
                "job": "",
                "iconUrl": "",
                "adminNo": "",
                "roles": [{
                    "idCode": "",
                    "name": ""
                }],
                "name": "张三丰",
                "id": 0
            },
            "idNo": 11111111111111,
            "gender": "M",
            "mobile": 13615215658,
            "job": "",
            "iconUrl": "../../images/5.png",
            "drinkingSituation": "",
            "sleepSituation": "",
            "smokingSituation": "",
            "nationality": "",
            "nativePlace": "天津市中国区",
            "medicalHistory": "",
            "familyMedicalHistory": "",
            "fertility": "",
            "allergic": "",
            "vipCard": {
                "activated": "时间戳",
                "expiredAt": 1488202469,
                "vipCard": "时间戳"
            },
            "id": 12356,
            "realName": "张无忌"
        },
        {
            "contactAddress": 111111111111,
            "adviser": {
                "mobile": "",
                "job": "",
                "iconUrl": "",
                "adminNo": "",
                "roles": [{
                    "idCode": "",
                    "name": ""
                }],
                "name": "张三丰",
                "id": 0
            },
            "idNo": 11111111111111,
            "gender": "M",
            "mobile": 13615215658,
            "job": "",
            "iconUrl": "../../images/5.png",
            "drinkingSituation": "",
            "sleepSituation": "",
            "smokingSituation": "",
            "nationality": "",
            "nativePlace": "天津市中国区",
            "medicalHistory": "",
            "familyMedicalHistory": "",
            "fertility": "",
            "allergic": "",
            "vipCard": {
                "activated": "时间戳",
                "expiredAt": 1488202469,
                "vipCard": "时间戳"
            },
            "id": 132156,
            "realName": "张无忌"
        },
        {
            "contactAddress": 111111111111,
            "adviser": {
                "mobile": "",
                "job": "",
                "iconUrl": "",
                "adminNo": "",
                "roles": [{
                    "idCode": "",
                    "name": ""
                }],
                "name": "张三丰",
                "id": 0
            },
            "idNo": 11111111111111,
            "gender": "M",
            "mobile": 13615215658,
            "job": "",
            "iconUrl": "../../images/5.png",
            "drinkingSituation": "",
            "sleepSituation": "",
            "smokingSituation": "",
            "nationality": "",
            "nativePlace": "天津市中国区",
            "medicalHistory": "",
            "familyMedicalHistory": "",
            "fertility": "",
            "allergic": "",
            "vipCard": {
                "activated": "时间戳",
                "expiredAt": 1488202469,
                "vipCard": "时间戳"
            },
            "id": 1516,
            "realName": "张无忌"
        },
        {
            "contactAddress": 111111111111,
            "adviser": {
                "mobile": "",
                "job": "",
                "iconUrl": "",
                "adminNo": "",
                "roles": [{
                    "idCode": "",
                    "name": ""
                }],
                "name": "张三丰",
                "id": 0
            },
            "idNo": 11111111111111,
            "gender": "M",
            "mobile": 13615215658,
            "job": "",
            "iconUrl": "../../images/5.png",
            "drinkingSituation": "",
            "sleepSituation": "",
            "smokingSituation": "",
            "nationality": "",
            "nativePlace": "天津市中国区",
            "medicalHistory": "",
            "familyMedicalHistory": "",
            "fertility": "",
            "allergic": "",
            "vipCard": {
                "activated": "时间戳",
                "expiredAt": 1488202469,
                "vipCard": "时间戳"
            },
            "id": 15231316,
            "realName": "张无忌"
        },
        {
            "contactAddress": 111111111111,
            "adviser": {
                "mobile": "",
                "job": "",
                "iconUrl": "",
                "adminNo": "",
                "roles": [{
                    "idCode": "",
                    "name": ""
                }],
                "name": "张三丰",
                "id": 0
            },
            "idNo": 11111111111111,
            "gender": "M",
            "mobile": 13615215658,
            "job": "",
            "iconUrl": "../../images/5.png",
            "drinkingSituation": "",
            "sleepSituation": "",
            "smokingSituation": "",
            "nationality": "",
            "nativePlace": "天津市中国区",
            "medicalHistory": "",
            "familyMedicalHistory": "",
            "fertility": "",
            "allergic": "",
            "vipCard": {
                "activated": "时间戳",
                "expiredAt": 1488202469,
                "vipCard": "时间戳"
            },
            "id": 1511111111116,
            "realName": "张无忌"
        }
    ],
    "page": 1
}
