{
    "totalPages": 10,
    "totalElements": 99,
    "pageNum": 10,
    "content": [{
            "district": "天津市河东区",
            "wechatUnionId": 11111,
            "wechatOpenId": 1111111111111111,
            "gender": "M",
            "iconUrl": "../../images/5.png",
            "createAt": {
                "nanos": 0,
                "time": 0,
                "date": 0,
                "year": 2001,
                "month": 6,
                "hours": 16,
                "minutes": 56,
                "seconds": 12,
                "day": 13,
                "timezoneOffset": 0
            },
            "vip": {
                "contactAddress": "",
                "adviser": {
                    "mobile": "",
                    "job": "",
                    "iconUrl": "",
                    "adminNo": "",
                    "roles": [{
                        "idCode": "",
                        "name": ""
                    }],
                    "name": "",
                    "id": 0
                },
                "idNo": 1111,
                "gender": "M",
                "mobile": "",
                "job": "",
                "iconUrl": "",
                "drinkingSituation": "",
                "sleepSituation": "",
                "smokingSituation": "",
                "nationality": "",
                "nativePlace": "",
                "medicalHistory": "",
                "familyMedicalHistory": "",
                "fertility": "",
                "allergic": "",
                "vipCard": {
                    "activated": "时间戳",
                    "expiredAt": "时间戳",
                    "vipCard": "时间戳"
                },
                "id": 0,
                "realName": ""
            },
            "referee": "张三丰",
            "userName": "李国强",
            "id": 23
        },
        {
            "district": "天津市河东区",
            "wechatUnionId": 11111,
            "wechatOpenId": 1111111111111111,
            "gender": "M",
            "iconUrl": "../../images/5.png",
            "createAt": {
                "nanos": 0,
                "time": 0,
                "date": 0,
                "year": 2002,
                "month": 6,
                "hours": 16,
                "minutes": 56,
                "seconds": 12,
                "day": 13,
                "timezoneOffset": 0
            },
            "vip": {
                "contactAddress": "",
                "adviser": {
                    "mobile": "",
                    "job": "",
                    "iconUrl": "",
                    "adminNo": "",
                    "roles": [{
                        "idCode": "",
                        "name": ""
                    }],
                    "name": "",
                    "id": 0
                },
                "idNo": 1111,
                "gender": "Gender",
                "mobile": "",
                "job": "",
                "iconUrl": "",
                "drinkingSituation": "",
                "sleepSituation": "",
                "smokingSituation": "",
                "nationality": "",
                "nativePlace": "",
                "medicalHistory": "",
                "familyMedicalHistory": "",
                "fertility": "",
                "allergic": "",
                "vipCard": {
                    "activated": "时间戳",
                    "expiredAt": "时间戳",
                    "vipCard": "时间戳"
                },
                "id": 0,
                "realName": ""
            },
            "referee": "张三丰",
            "userName": "AS国强",
            "id": 3232
        },
        {
            "district": "天津市河东区",
            "wechatUnionId": 11111,
            "wechatOpenId": 1111111111111111,
            "gender": "M",
            "iconUrl": "../../images/5.png",
            "createAt": {
                "nanos": 0,
                "time": 0,
                "date": 0,
                "year": 2013,
                "month": 6,
                "hours": 16,
                "minutes": 56,
                "seconds": 12,
                "day": 13,
                "timezoneOffset": 0
            },
            "vip": {
                "contactAddress": "",
                "adviser": {
                    "mobile": "",
                    "job": "",
                    "iconUrl": "",
                    "adminNo": "",
                    "roles": [{
                        "idCode": "",
                        "name": ""
                    }],
                    "name": "",
                    "id": 0
                },
                "idNo": 1111,
                "gender": "Gender",
                "mobile": "",
                "job": "",
                "iconUrl": "",
                "drinkingSituation": "",
                "sleepSituation": "",
                "smokingSituation": "",
                "nationality": "",
                "nativePlace": "",
                "medicalHistory": "",
                "familyMedicalHistory": "",
                "fertility": "",
                "allergic": "",
                "vipCard": {
                    "activated": "时间戳",
                    "expiredAt": "时间戳",
                    "vipCard": "时间戳"
                },
                "id": 0,
                "realName": ""
            },
            "referee": "张三丰",
            "userName": "B国强",
            "id": 11
        },
        {
            "district": "天津市河东区",
            "wechatUnionId": 11111,
            "wechatOpenId": 1111111111111111,
            "gender": "Gender",
            "iconUrl": "../../images/5.png",
            "createAt": {
                "nanos": 0,
                "time": 0,
                "date": 0,
                "year": 2563,
                "month": 6,
                "hours": 16,
                "minutes": 56,
                "seconds": 12,
                "day": 13,
                "timezoneOffset": 0
            },
            "vip": {
                "contactAddress": "",
                "adviser": {
                    "mobile": "",
                    "job": "",
                    "iconUrl": "",
                    "adminNo": "",
                    "roles": [{
                        "idCode": "",
                        "name": ""
                    }],
                    "name": "",
                    "id": 0
                },
                "idNo": 1111,
                "gender": "Gender",
                "mobile": "",
                "job": "",
                "iconUrl": "",
                "drinkingSituation": "",
                "sleepSituation": "",
                "smokingSituation": "",
                "nationality": "",
                "nativePlace": "",
                "medicalHistory": "",
                "familyMedicalHistory": "",
                "fertility": "",
                "allergic": "",
                "vipCard": {
                    "activated": "时间戳",
                    "expiredAt": "时间戳",
                    "vipCard": "时间戳"
                },
                "id": 0,
                "realName": ""
            },
            "referee": "张三丰",
            "userName": "C国强",
            "id": 54350
        },
        {
            "district": "天津市河东区",
            "wechatUnionId": 11111,
            "wechatOpenId": 1111111111111111,
            "gender": "Gender",
            "iconUrl": "../../images/5.png",
            "createAt": {
                "nanos": 0,
                "time": 0,
                "date": 0,
                "year": 20139,
                "month": 6,
                "hours": 16,
                "minutes": 56,
                "seconds": 12,
                "day": 13,
                "timezoneOffset": 0
            },
            "vip": {
                "contactAddress": "",
                "adviser": {
                    "mobile": "",
                    "job": "",
                    "iconUrl": "",
                    "adminNo": "",
                    "roles": [{
                        "idCode": "",
                        "name": ""
                    }],
                    "name": "",
                    "id": 0
                },
                "idNo": 1111,
                "gender": "Gender",
                "mobile": "",
                "job": "",
                "iconUrl": "",
                "drinkingSituation": "",
                "sleepSituation": "",
                "smokingSituation": "",
                "nationality": "",
                "nativePlace": "",
                "medicalHistory": "",
                "familyMedicalHistory": "",
                "fertility": "",
                "allergic": "",
                "vipCard": {
                    "activated": "时间戳",
                    "expiredAt": "时间戳",
                    "vipCard": "时间戳"
                },
                "id": 0,
                "realName": ""
            },
            "referee": "张三丰",
            "userName": "张国强",
            "id": 54350
        },
        {
            "district": "天津市河东区",
            "wechatUnionId": 11111,
            "wechatOpenId": 1111111111111111,
            "gender": "Gender",
            "iconUrl": "../../images/5.png",
            "createAt": {
                "nanos": 0,
                "time": 0,
                "date": 0,
                "year": 2033,
                "month": 6,
                "hours": 16,
                "minutes": 56,
                "seconds": 12,
                "day": 13,
                "timezoneOffset": 0
            },
            "vip": {
                "contactAddress": "",
                "adviser": {
                    "mobile": "",
                    "job": "",
                    "iconUrl": "",
                    "adminNo": "",
                    "roles": [{
                        "idCode": "",
                        "name": ""
                    }],
                    "name": "",
                    "id": 0
                },
                "idNo": 1111,
                "gender": "Gender",
                "mobile": "",
                "job": "",
                "iconUrl": "",
                "drinkingSituation": "",
                "sleepSituation": "",
                "smokingSituation": "",
                "nationality": "",
                "nativePlace": "",
                "medicalHistory": "",
                "familyMedicalHistory": "",
                "fertility": "",
                "allergic": "",
                "vipCard": {
                    "activated": "时间戳",
                    "expiredAt": "时间戳",
                    "vipCard": "时间戳"
                },
                "id": 0,
                "realName": ""
            },
            "referee": "张三丰",
            "userName": "张国强",
            "id": 54353320
        },
        {
            "district": "天津市河东区",
            "wechatUnionId": 11111,
            "wechatOpenId": 1111111111111111,
            "gender": "Gender",
            "iconUrl": "../../images/5.png",
            "createAt": {
                "nanos": 0,
                "time": 0,
                "date": 0,
                "year": 2013,
                "month": 6,
                "hours": 16,
                "minutes": 56,
                "seconds": 12,
                "day": 13,
                "timezoneOffset": 0
            },
            "vip": {
                "contactAddress": "",
                "adviser": {
                    "mobile": "",
                    "job": "",
                    "iconUrl": "",
                    "adminNo": "",
                    "roles": [{
                        "idCode": "",
                        "name": ""
                    }],
                    "name": "",
                    "id": 0
                },
                "idNo": 1111,
                "gender": "Gender",
                "mobile": "",
                "job": "",
                "iconUrl": "",
                "drinkingSituation": "",
                "sleepSituation": "",
                "smokingSituation": "",
                "nationality": "",
                "nativePlace": "",
                "medicalHistory": "",
                "familyMedicalHistory": "",
                "fertility": "",
                "allergic": "",
                "vipCard": {
                    "activated": "时间戳",
                    "expiredAt": "时间戳",
                    "vipCard": "时间戳"
                },
                "id": 0,
                "realName": ""
            },
            "referee": "张三丰",
            "userName": "张国强",
            "id": 22222220
        },
        {
            "district": "天津市河东区",
            "wechatUnionId": 11111,
            "wechatOpenId": 1111111111111111,
            "gender": "Gender",
            "iconUrl": "../../images/5.png",
            "createAt": {
                "nanos": 0,
                "time": 0,
                "date": 0,
                "year": 2013,
                "month": 6,
                "hours": 16,
                "minutes": 56,
                "seconds": 12,
                "day": 13,
                "timezoneOffset": 0
            },
            "vip": {
                "contactAddress": "",
                "adviser": {
                    "mobile": "",
                    "job": "",
                    "iconUrl": "",
                    "adminNo": "",
                    "roles": [{
                        "idCode": "",
                        "name": ""
                    }],
                    "name": "",
                    "id": 0
                },
                "idNo": 1111,
                "gender": "Gender",
                "mobile": "",
                "job": "",
                "iconUrl": "",
                "drinkingSituation": "",
                "sleepSituation": "",
                "smokingSituation": "",
                "nationality": "",
                "nativePlace": "",
                "medicalHistory": "",
                "familyMedicalHistory": "",
                "fertility": "",
                "allergic": "",
                "vipCard": {
                    "activated": "时间戳",
                    "expiredAt": "时间戳",
                    "vipCard": "时间戳"
                },
                "id": 0,
                "realName": ""
            },
            "referee": "张三丰",
            "userName": "张国强",
            "id": 87870
        },
        {
            "district": "天津市河东区",
            "wechatUnionId": 11111,
            "wechatOpenId": 1111111111111111,
            "gender": "Gender",
            "iconUrl": "../../images/5.png",
            "createAt": {
                "nanos": 0,
                "time": 0,
                "date": 0,
                "year": 2013,
                "month": 6,
                "hours": 16,
                "minutes": 56,
                "seconds": 12,
                "day": 13,
                "timezoneOffset": 0
            },
            "vip": {
                "contactAddress": "",
                "adviser": {
                    "mobile": "",
                    "job": "",
                    "iconUrl": "",
                    "adminNo": "",
                    "roles": [{
                        "idCode": "",
                        "name": ""
                    }],
                    "name": "",
                    "id": 0
                },
                "idNo": 1111,
                "gender": "Gender",
                "mobile": "",
                "job": "",
                "iconUrl": "",
                "drinkingSituation": "",
                "sleepSituation": "",
                "smokingSituation": "",
                "nationality": "",
                "nativePlace": "",
                "medicalHistory": "",
                "familyMedicalHistory": "",
                "fertility": "",
                "allergic": "",
                "vipCard": {
                    "activated": "时间戳",
                    "expiredAt": "时间戳",
                    "vipCard": "时间戳"
                },
                "id": 0,
                "realName": ""
            },
            "referee": "张三丰",
            "userName": "张国强",
            "id": 990
        },
        {
            "district": "天津市河东区",
            "wechatUnionId": 11111,
            "wechatOpenId": 1111111111111111,
            "gender": "Gender",
            "iconUrl": "../../images/5.png",
            "createAt": {
                "nanos": 0,
                "time": 0,
                "date": 0,
                "year": 2013,
                "month": 6,
                "hours": 16,
                "minutes": 56,
                "seconds": 12,
                "day": 13,
                "timezoneOffset": 0
            },
            "vip": {
                "contactAddress": "",
                "adviser": {
                    "mobile": "",
                    "job": "",
                    "iconUrl": "",
                    "adminNo": "",
                    "roles": [{
                        "idCode": "",
                        "name": ""
                    }],
                    "name": "",
                    "id": 0
                },
                "idNo": 1111,
                "gender": "Gender",
                "mobile": "",
                "job": "",
                "iconUrl": "",
                "drinkingSituation": "",
                "sleepSituation": "",
                "smokingSituation": "",
                "nationality": "",
                "nativePlace": "",
                "medicalHistory": "",
                "familyMedicalHistory": "",
                "fertility": "",
                "allergic": "",
                "vipCard": {
                    "activated": "时间戳",
                    "expiredAt": "时间戳",
                    "vipCard": "时间戳"
                },
                "id": 0,
                "realName": ""
            },
            "referee": "张三丰",
            "userName": "张国强",
            "id": 2234210
        }
    ],
    "page": 3
}
