{
    "totalPages": 11,
    "totalElements": 102,
    "pageNum": 10,
    "content": [
        {
            "contactAddress": "天津市河东区东局子",
            "adviser": {
                "mobile": "15689994531",
                "job": "顾问",
                "iconUrl": "../../images/userphoto.jpg",
                "adminNo": "",
                "roles": [
                    {
                        "idCode": 100,
                        "name": "高圆圆"
                    }
                ],
                "name": "高圆圆",
                "id": 1256
            },
            "idNo": "1",
            "gender": "男",
            "mobile": 13656984522,
            "job": "清洁工",
            "iconUrl": "../../images/userphoto.jpg",
            "drinkingSituation": "正常",
            "sleepSituation": "正常",
            "smokingSituation": "不吸烟",
            "nationality": "中国",
            "nativePlace": "天津市",
            "medicalHistory": "无",
            "familyMedicalHistory": "无",
            "fertility": "正常",
            "allergic": "青霉素",
            "vipCard": {
                "activated": "时间戳",
                "expiredAt": "时间戳",
                "vipCard": "时间戳"
            },
            "id": 1136,
            "realName": "张三丰"
        },
        {
            "contactAddress": "天津市河东区东局子",
            "adviser": {
                "mobile": "15689994531",
                "job": "顾问",
                "iconUrl": "../../images/userphoto.jpg",
                "adminNo": "",
                "roles": [
                    {
                        "idCode": 100,
                        "name": "高圆圆"
                    }
                ],
                "name": "高圆圆",
                "id": 1256
            },
            "idNo": "1",
            "gender": "男",
            "mobile": 13656984522,
            "job": "清洁工",
            "iconUrl": "../../images/userphoto.jpg",
            "drinkingSituation": "正常",
            "sleepSituation": "正常",
            "smokingSituation": "不吸烟",
            "nationality": "中国",
            "nativePlace": "天津市",
            "medicalHistory": "无",
            "familyMedicalHistory": "无",
            "fertility": "正常",
            "allergic": "青霉素",
            "vipCard": {
                "activated": "时间戳",
                "expiredAt": "时间戳",
                "vipCard": "时间戳"
            },
            "id": 1136,
            "realName": "贾静雯"
        },
        {
            "contactAddress": "天津市河东区东局子",
            "adviser": {
                "mobile": "15689994531",
                "job": "顾问",
                "iconUrl": "../../images/userphoto.jpg",
                "adminNo": "",
                "roles": [
                    {
                        "idCode": 100,
                        "name": "高圆圆"
                    }
                ],
                "name": "高圆圆",
                "id": 1256
            },
            "idNo": "1",
            "gender": "男",
            "mobile": 13656984522,
            "job": "清洁工",
            "iconUrl": "../../images/userphoto.jpg",
            "drinkingSituation": "正常",
            "sleepSituation": "正常",
            "smokingSituation": "不吸烟",
            "nationality": "中国",
            "nativePlace": "天津市",
            "medicalHistory": "无",
            "familyMedicalHistory": "无",
            "fertility": "正常",
            "allergic": "青霉素",
            "vipCard": {
                "activated": "时间戳",
                "expiredAt": "时间戳",
                "vipCard": "时间戳"
            },
            "id": 1136,
            "realName": "苏有朋"
        },
        {
            "contactAddress": "天津市河东区东局子",
            "adviser": {
                "mobile": "15689994531",
                "job": "顾问",
                "iconUrl": "../../images/userphoto.jpg",
                "adminNo": "",
                "roles": [
                    {
                        "idCode": 100,
                        "name": "高圆圆"
                    }
                ],
                "name": "高圆圆",
                "id": 1256
            },
            "idNo": "1",
            "gender": "男",
            "mobile": 13656984522,
            "job": "清洁工",
            "iconUrl": "../../images/userphoto.jpg",
            "drinkingSituation": "正常",
            "sleepSituation": "正常",
            "smokingSituation": "不吸烟",
            "nationality": "中国",
            "nativePlace": "天津市",
            "medicalHistory": "无",
            "familyMedicalHistory": "无",
            "fertility": "正常",
            "allergic": "青霉素",
            "vipCard": {
                "activated": "时间戳",
                "expiredAt": "时间戳",
                "vipCard": "时间戳"
            },
            "id": 1136,
            "realName": "邓超"
        },
        {
            "contactAddress": "天津市河东区东局子",
            "adviser": {
                "mobile": "15689994531",
                "job": "顾问",
                "iconUrl": "../../images/userphoto.jpg",
                "adminNo": "",
                "roles": [
                    {
                        "idCode": 100,
                        "name": "高圆圆"
                    }
                ],
                "name": "高圆圆",
                "id": 1256
            },
            "idNo": "1",
            "gender": "男",
            "mobile": 13656984522,
            "job": "清洁工",
            "iconUrl": "../../images/userphoto.jpg",
            "drinkingSituation": "正常",
            "sleepSituation": "正常",
            "smokingSituation": "不吸烟",
            "nationality": "中国",
            "nativePlace": "天津市",
            "medicalHistory": "无",
            "familyMedicalHistory": "无",
            "fertility": "正常",
            "allergic": "青霉素",
            "vipCard": {
                "activated": "时间戳",
                "expiredAt": "时间戳",
                "vipCard": "时间戳"
            },
            "id": 1136,
            "realName": "孙俪"
        },
        {
            "contactAddress": "天津市河东区东局子",
            "adviser": {
                "mobile": "15689994531",
                "job": "顾问",
                "iconUrl": "../../images/userphoto.jpg",
                "adminNo": "",
                "roles": [
                    {
                        "idCode": 100,
                        "name": "高圆圆"
                    }
                ],
                "name": "高圆圆",
                "id": 1256
            },
            "idNo": "1",
            "gender": "男",
            "mobile": 13656984522,
            "job": "清洁工",
            "iconUrl": "../../images/userphoto.jpg",
            "drinkingSituation": "正常",
            "sleepSituation": "正常",
            "smokingSituation": "不吸烟",
            "nationality": "中国",
            "nativePlace": "天津市",
            "medicalHistory": "无",
            "familyMedicalHistory": "无",
            "fertility": "正常",
            "allergic": "青霉素",
            "vipCard": {
                "activated": "时间戳",
                "expiredAt": "时间戳",
                "vipCard": "时间戳"
            },
            "id": 1136,
            "realName": "赵奕欢"
        }
    ],
    "page": 0
}